%YAML 1.1
%TAG !u! tag:unity3d.com,2011:
--- !u!1045 &1
EditorBuildSettings:
  m_ObjectHideFlags: 0
  serializedVersion: 2
  m_Scenes:
  - enabled: 0
    path: Assets/Scenes/rulAR.unity
    guid: c418b3e074aff714fa6c8cc1be683d97
  - enabled: 1
    path: Assets/Scenes/Measurement.unity
    guid: 6a4fc9ab1d46745bc877d8a066d97406
  m_configObjects:
    com.unity.xr.management.loader_settings: {fileID: 11400000, guid: 9e7bd27995a02a9488080624eb7c8b6a,
      type: 2}
